%YAML 1.1
%TAG !u! tag:unity3d.com,2011:
--- !u!1 &1895243880864309093
GameObject:
  m_ObjectHideFlags: 0
  m_CorrespondingSourceObject: {fileID: 0}
  m_PrefabInstance: {fileID: 0}
  m_PrefabAsset: {fileID: 0}
  serializedVersion: 6
  m_Component:
  - component: {fileID: 1273744296481888485}
  - component: {fileID: 1609096838258000340}
  m_Layer: 0
  m_Name: Chao
  m_TagString: Untagged
  m_Icon: {fileID: 0}
  m_NavMeshLayer: 0
  m_StaticEditorFlags: 0
  m_IsActive: 1
--- !u!4 &1273744296481888485
Transform:
  m_ObjectHideFlags: 0
  m_CorrespondingSourceObject: {fileID: 0}
  m_PrefabInstance: {fileID: 0}
  m_PrefabAsset: {fileID: 0}
  m_GameObject: {fileID: 1895243880864309093}
  m_LocalRotation: {x: 0, y: 0, z: 0, w: 1}
  m_LocalPosition: {x: 0, y: 0, z: 0}
  m_LocalScale: {x: 1, y: 1, z: 1}
  m_ConstrainProportionsScale: 0
  m_Children:
  - {fileID: 8940685097239450574}
  m_Father: {fileID: 0}
  m_RootOrder: 0
  m_LocalEulerAnglesHint: {x: 0, y: 0, z: 0}
--- !u!156049354 &1609096838258000340
Grid:
  m_ObjectHideFlags: 0
  m_CorrespondingSourceObject: {fileID: 0}
  m_PrefabInstance: {fileID: 0}
  m_PrefabAsset: {fileID: 0}
  m_GameObject: {fileID: 1895243880864309093}
  m_Enabled: 1
  m_CellSize: {x: 1, y: 1, z: 0}
  m_CellGap: {x: 0, y: 0, z: 0}
  m_CellLayout: 0
  m_CellSwizzle: 0
--- !u!1 &8483232938391793035
GameObject:
  m_ObjectHideFlags: 0
  m_CorrespondingSourceObject: {fileID: 0}
  m_PrefabInstance: {fileID: 0}
  m_PrefabAsset: {fileID: 0}
  serializedVersion: 6
  m_Component:
  - component: {fileID: 8940685097239450574}
  - component: {fileID: 4895827458735834338}
  - component: {fileID: 1041016317922968752}
  m_Layer: 0
  m_Name: Layer1
  m_TagString: Untagged
  m_Icon: {fileID: 0}
  m_NavMeshLayer: 0
  m_StaticEditorFlags: 0
  m_IsActive: 1
--- !u!4 &8940685097239450574
Transform:
  m_ObjectHideFlags: 0
  m_CorrespondingSourceObject: {fileID: 0}
  m_PrefabInstance: {fileID: 0}
  m_PrefabAsset: {fileID: 0}
  m_GameObject: {fileID: 8483232938391793035}
  m_LocalRotation: {x: -0, y: -0, z: -0, w: 1}
  m_LocalPosition: {x: 0, y: 0, z: 0}
  m_LocalScale: {x: 1, y: 1, z: 1}
  m_ConstrainProportionsScale: 0
  m_Children: []
  m_Father: {fileID: 1273744296481888485}
  m_RootOrder: 0
  m_LocalEulerAnglesHint: {x: 0, y: 0, z: 0}
--- !u!1839735485 &4895827458735834338
Tilemap:
  m_ObjectHideFlags: 0
  m_CorrespondingSourceObject: {fileID: 0}
  m_PrefabInstance: {fileID: 0}
  m_PrefabAsset: {fileID: 0}
  m_GameObject: {fileID: 8483232938391793035}
  m_Enabled: 1
  m_Tiles:
  - first: {x: -3, y: -7, z: 0}
    second:
      serializedVersion: 2
      m_TileIndex: 34
      m_TileSpriteIndex: 34
      m_TileMatrixIndex: 0
      m_TileColorIndex: 0
      m_TileObjectToInstantiateIndex: 65535
      dummyAlignment: 0
      m_AllTileFlags: 1073741825
  - first: {x: -2, y: -7, z: 0}
    second:
      serializedVersion: 2
      m_TileIndex: 35
      m_TileSpriteIndex: 35
      m_TileMatrixIndex: 0
      m_TileColorIndex: 0
      m_TileObjectToInstantiateIndex: 65535
      dummyAlignment: 0
      m_AllTileFlags: 1073741825
  - first: {x: -3, y: -6, z: 0}
    second:
      serializedVersion: 2
      m_TileIndex: 31
      m_TileSpriteIndex: 31
      m_TileMatrixIndex: 0
      m_TileColorIndex: 0
      m_TileObjectToInstantiateIndex: 65535
      dummyAlignment: 0
      m_AllTileFlags: 1073741825
  - first: {x: -2, y: -6, z: 0}
    second:
      serializedVersion: 2
      m_TileIndex: 32
      m_TileSpriteIndex: 32
      m_TileMatrixIndex: 0
      m_TileColorIndex: 0
      m_TileObjectToInstantiateIndex: 65535
      dummyAlignment: 0
      m_AllTileFlags: 1073741825
  - first: {x: -1, y: -6, z: 0}
    second:
      serializedVersion: 2
      m_TileIndex: 33
      m_TileSpriteIndex: 33
      m_TileMatrixIndex: 0
      m_TileColorIndex: 0
      m_TileObjectToInstantiateIndex: 65535
      dummyAlignment: 0
      m_AllTileFlags: 1073741825
  - first: {x: -3, y: -5, z: 0}
    second:
      serializedVersion: 2
      m_TileIndex: 28
      m_TileSpriteIndex: 28
      m_TileMatrixIndex: 0
      m_TileColorIndex: 0
      m_TileObjectToInstantiateIndex: 65535
      dummyAlignment: 0
      m_AllTileFlags: 1073741825
  - first: {x: -2, y: -5, z: 0}
    second:
      serializedVersion: 2
      m_TileIndex: 29
      m_TileSpriteIndex: 29
      m_TileMatrixIndex: 0
      m_TileColorIndex: 0
      m_TileObjectToInstantiateIndex: 65535
      dummyAlignment: 0
      m_AllTileFlags: 1073741825
  - first: {x: -1, y: -5, z: 0}
    second:
      serializedVersion: 2
      m_TileIndex: 30
      m_TileSpriteIndex: 30
      m_TileMatrixIndex: 0
      m_TileColorIndex: 0
      m_TileObjectToInstantiateIndex: 65535
      dummyAlignment: 0
      m_AllTileFlags: 1073741825
  - first: {x: -3, y: -4, z: 0}
    second:
      serializedVersion: 2
      m_TileIndex: 25
      m_TileSpriteIndex: 25
      m_TileMatrixIndex: 0
      m_TileColorIndex: 0
      m_TileObjectToInstantiateIndex: 65535
      dummyAlignment: 0
      m_AllTileFlags: 1073741825
  - first: {x: -2, y: -4, z: 0}
    second:
      serializedVersion: 2
      m_TileIndex: 26
      m_TileSpriteIndex: 26
      m_TileMatrixIndex: 0
      m_TileColorIndex: 0
      m_TileObjectToInstantiateIndex: 65535
      dummyAlignment: 0
      m_AllTileFlags: 1073741825
  - first: {x: -1, y: -4, z: 0}
    second:
      serializedVersion: 2
      m_TileIndex: 27
      m_TileSpriteIndex: 27
      m_TileMatrixIndex: 0
      m_TileColorIndex: 0
      m_TileObjectToInstantiateIndex: 65535
      dummyAlignment: 0
      m_AllTileFlags: 1073741825
  - first: {x: -2, y: -2, z: 0}
    second:
      serializedVersion: 2
      m_TileIndex: 20
      m_TileSpriteIndex: 20
      m_TileMatrixIndex: 0
      m_TileColorIndex: 0
      m_TileObjectToInstantiateIndex: 65535
      dummyAlignment: 0
      m_AllTileFlags: 1073741825
  - first: {x: -1, y: -2, z: 0}
    second:
      serializedVersion: 2
      m_TileIndex: 21
      m_TileSpriteIndex: 21
      m_TileMatrixIndex: 0
      m_TileColorIndex: 0
      m_TileObjectToInstantiateIndex: 65535
      dummyAlignment: 0
      m_AllTileFlags: 1073741825
  - first: {x: 0, y: -2, z: 0}
    second:
      serializedVersion: 2
      m_TileIndex: 22
      m_TileSpriteIndex: 22
      m_TileMatrixIndex: 0
      m_TileColorIndex: 0
      m_TileObjectToInstantiateIndex: 65535
      dummyAlignment: 0
      m_AllTileFlags: 1073741825
  - first: {x: 1, y: -2, z: 0}
    second:
      serializedVersion: 2
      m_TileIndex: 23
      m_TileSpriteIndex: 23
      m_TileMatrixIndex: 0
      m_TileColorIndex: 0
      m_TileObjectToInstantiateIndex: 65535
      dummyAlignment: 0
      m_AllTileFlags: 1073741825
  - first: {x: 2, y: -2, z: 0}
    second:
      serializedVersion: 2
      m_TileIndex: 24
      m_TileSpriteIndex: 24
      m_TileMatrixIndex: 0
      m_TileColorIndex: 0
      m_TileObjectToInstantiateIndex: 65535
      dummyAlignment: 0
      m_AllTileFlags: 1073741825
  - first: {x: -2, y: -1, z: 0}
    second:
      serializedVersion: 2
      m_TileIndex: 15
      m_TileSpriteIndex: 15
      m_TileMatrixIndex: 0
      m_TileColorIndex: 0
      m_TileObjectToInstantiateIndex: 65535
      dummyAlignment: 0
      m_AllTileFlags: 1073741825
  - first: {x: -1, y: -1, z: 0}
    second:
      serializedVersion: 2
      m_TileIndex: 16
      m_TileSpriteIndex: 16
      m_TileMatrixIndex: 0
      m_TileColorIndex: 0
      m_TileObjectToInstantiateIndex: 65535
      dummyAlignment: 0
      m_AllTileFlags: 1073741825
  - first: {x: 0, y: -1, z: 0}
    second:
      serializedVersion: 2
      m_TileIndex: 17
      m_TileSpriteIndex: 17
      m_TileMatrixIndex: 0
      m_TileColorIndex: 0
      m_TileObjectToInstantiateIndex: 65535
      dummyAlignment: 0
      m_AllTileFlags: 1073741825
  - first: {x: 1, y: -1, z: 0}
    second:
      serializedVersion: 2
      m_TileIndex: 18
      m_TileSpriteIndex: 18
      m_TileMatrixIndex: 0
      m_TileColorIndex: 0
      m_TileObjectToInstantiateIndex: 65535
      dummyAlignment: 0
      m_AllTileFlags: 1073741825
  - first: {x: 2, y: -1, z: 0}
    second:
      serializedVersion: 2
      m_TileIndex: 19
      m_TileSpriteIndex: 19
      m_TileMatrixIndex: 0
      m_TileColorIndex: 0
      m_TileObjectToInstantiateIndex: 65535
      dummyAlignment: 0
      m_AllTileFlags: 1073741825
  - first: {x: -2, y: 1, z: 0}
    second:
      serializedVersion: 2
      m_TileIndex: 10
      m_TileSpriteIndex: 10
      m_TileMatrixIndex: 0
      m_TileColorIndex: 0
      m_TileObjectToInstantiateIndex: 65535
      dummyAlignment: 0
      m_AllTileFlags: 1073741825
  - first: {x: -1, y: 1, z: 0}
    second:
      serializedVersion: 2
      m_TileIndex: 11
      m_TileSpriteIndex: 11
      m_TileMatrixIndex: 0
      m_TileColorIndex: 0
      m_TileObjectToInstantiateIndex: 65535
      dummyAlignment: 0
      m_AllTileFlags: 1073741825
  - first: {x: 0, y: 1, z: 0}
    second:
      serializedVersion: 2
      m_TileIndex: 12
      m_TileSpriteIndex: 12
      m_TileMatrixIndex: 0
      m_TileColorIndex: 0
      m_TileObjectToInstantiateIndex: 65535
      dummyAlignment: 0
      m_AllTileFlags: 1073741825
  - first: {x: 1, y: 1, z: 0}
    second:
      serializedVersion: 2
      m_TileIndex: 13
      m_TileSpriteIndex: 13
      m_TileMatrixIndex: 0
      m_TileColorIndex: 0
      m_TileObjectToInstantiateIndex: 65535
      dummyAlignment: 0
      m_AllTileFlags: 1073741825
  - first: {x: 2, y: 1, z: 0}
    second:
      serializedVersion: 2
      m_TileIndex: 14
      m_TileSpriteIndex: 14
      m_TileMatrixIndex: 0
      m_TileColorIndex: 0
      m_TileObjectToInstantiateIndex: 65535
      dummyAlignment: 0
      m_AllTileFlags: 1073741825
  - first: {x: -2, y: 2, z: 0}
    second:
      serializedVersion: 2
      m_TileIndex: 5
      m_TileSpriteIndex: 5
      m_TileMatrixIndex: 0
      m_TileColorIndex: 0
      m_TileObjectToInstantiateIndex: 65535
      dummyAlignment: 0
      m_AllTileFlags: 1073741825
  - first: {x: -1, y: 2, z: 0}
    second:
      serializedVersion: 2
      m_TileIndex: 6
      m_TileSpriteIndex: 6
      m_TileMatrixIndex: 0
      m_TileColorIndex: 0
      m_TileObjectToInstantiateIndex: 65535
      dummyAlignment: 0
      m_AllTileFlags: 1073741825
  - first: {x: 0, y: 2, z: 0}
    second:
      serializedVersion: 2
      m_TileIndex: 7
      m_TileSpriteIndex: 7
      m_TileMatrixIndex: 0
      m_TileColorIndex: 0
      m_TileObjectToInstantiateIndex: 65535
      dummyAlignment: 0
      m_AllTileFlags: 1073741825
  - first: {x: 1, y: 2, z: 0}
    second:
      serializedVersion: 2
      m_TileIndex: 8
      m_TileSpriteIndex: 8
      m_TileMatrixIndex: 0
      m_TileColorIndex: 0
      m_TileObjectToInstantiateIndex: 65535
      dummyAlignment: 0
      m_AllTileFlags: 1073741825
  - first: {x: 2, y: 2, z: 0}
    second:
      serializedVersion: 2
      m_TileIndex: 9
      m_TileSpriteIndex: 9
      m_TileMatrixIndex: 0
      m_TileColorIndex: 0
      m_TileObjectToInstantiateIndex: 65535
      dummyAlignment: 0
      m_AllTileFlags: 1073741825
  - first: {x: -2, y: 3, z: 0}
    second:
      serializedVersion: 2
      m_TileIndex: 0
      m_TileSpriteIndex: 0
      m_TileMatrixIndex: 0
      m_TileColorIndex: 0
      m_TileObjectToInstantiateIndex: 65535
      dummyAlignment: 0
      m_AllTileFlags: 1073741825
  - first: {x: -1, y: 3, z: 0}
    second:
      serializedVersion: 2
      m_TileIndex: 1
      m_TileSpriteIndex: 1
      m_TileMatrixIndex: 0
      m_TileColorIndex: 0
      m_TileObjectToInstantiateIndex: 65535
      dummyAlignment: 0
      m_AllTileFlags: 1073741825
  - first: {x: 0, y: 3, z: 0}
    second:
      serializedVersion: 2
      m_TileIndex: 2
      m_TileSpriteIndex: 2
      m_TileMatrixIndex: 0
      m_TileColorIndex: 0
      m_TileObjectToInstantiateIndex: 65535
      dummyAlignment: 0
      m_AllTileFlags: 1073741825
  - first: {x: 1, y: 3, z: 0}
    second:
      serializedVersion: 2
      m_TileIndex: 3
      m_TileSpriteIndex: 3
      m_TileMatrixIndex: 0
      m_TileColorIndex: 0
      m_TileObjectToInstantiateIndex: 65535
      dummyAlignment: 0
      m_AllTileFlags: 1073741825
  - first: {x: 2, y: 3, z: 0}
    second:
      serializedVersion: 2
      m_TileIndex: 4
      m_TileSpriteIndex: 4
      m_TileMatrixIndex: 0
      m_TileColorIndex: 0
      m_TileObjectToInstantiateIndex: 65535
      dummyAlignment: 0
      m_AllTileFlags: 1073741825
  m_AnimatedTiles: {}
  m_TileAssetArray:
  - m_RefCount: 1
    m_Data: {fileID: 11400000, guid: 5dbb6c249dbb6ce4c88788b266f6b457, type: 2}
  - m_RefCount: 1
    m_Data: {fileID: 11400000, guid: 50f25aaa821f6794983dcf55f264e9bc, type: 2}
  - m_RefCount: 1
    m_Data: {fileID: 11400000, guid: bb8df7198edb47e4daf040f0e623384f, type: 2}
  - m_RefCount: 1
    m_Data: {fileID: 11400000, guid: 0767b4c7fd53567429ad84354f7f1236, type: 2}
  - m_RefCount: 1
    m_Data: {fileID: 11400000, guid: 012d2dfe1cd3b474ab665a849ad38806, type: 2}
  - m_RefCount: 1
    m_Data: {fileID: 11400000, guid: e86744cbd22eff447b4e542bcfa2e5cc, type: 2}
  - m_RefCount: 1
    m_Data: {fileID: 11400000, guid: 041de29034adada47acfe66b7350a91b, type: 2}
  - m_RefCount: 1
    m_Data: {fileID: 11400000, guid: cc54fdb453a11b343ab7caaf5e742013, type: 2}
  - m_RefCount: 1
    m_Data: {fileID: 11400000, guid: e7afe61879e497d439db1771f23045e8, type: 2}
  - m_RefCount: 1
    m_Data: {fileID: 11400000, guid: f22ed34e79e2ee647987b84f5130cc68, type: 2}
  - m_RefCount: 1
    m_Data: {fileID: 11400000, guid: a0dd890b4d3fc784bb02f653bfe13261, type: 2}
  - m_RefCount: 1
    m_Data: {fileID: 11400000, guid: 6e55b0afe74cceb48909634f0cdafa8c, type: 2}
  - m_RefCount: 1
    m_Data: {fileID: 11400000, guid: ebaf57d4b378026408793b730e343c1c, type: 2}
  - m_RefCount: 1
    m_Data: {fileID: 11400000, guid: df4b3221ab3ed2747b7c1f4c31a546ed, type: 2}
  - m_RefCount: 1
    m_Data: {fileID: 11400000, guid: c0cc0779999879b4792b105c9b321bc0, type: 2}
  - m_RefCount: 1
    m_Data: {fileID: 11400000, guid: e55bc280fb336614bbab0a8b5b8c8431, type: 2}
  - m_RefCount: 1
    m_Data: {fileID: 11400000, guid: c104aa8e0b28b0d4d94ad02154690862, type: 2}
  - m_RefCount: 1
    m_Data: {fileID: 11400000, guid: 21291c9fc5e2928458b0ec46ef58427e, type: 2}
  - m_RefCount: 1
    m_Data: {fileID: 11400000, guid: b251527a527eee942a563a2ae4476703, type: 2}
  - m_RefCount: 1
    m_Data: {fileID: 11400000, guid: 5e9919f75d706924d82211c661973c98, type: 2}
  - m_RefCount: 1
    m_Data: {fileID: 11400000, guid: 0d8d626eb69c9c74ba8ae4764ee63ad2, type: 2}
  - m_RefCount: 1
    m_Data: {fileID: 11400000, guid: 439d8cf4d9e12184a926b95c548daea0, type: 2}
  - m_RefCount: 1
    m_Data: {fileID: 11400000, guid: c295ea2eacb8e894281fd26617f1caea, type: 2}
  - m_RefCount: 1
    m_Data: {fileID: 11400000, guid: 04889165b6d304d47ba916895885d5de, type: 2}
  - m_RefCount: 1
    m_Data: {fileID: 11400000, guid: 8456bbfdf57d7ce4bae6331a9252377e, type: 2}
  - m_RefCount: 1
    m_Data: {fileID: 11400000, guid: 2b23990d964c2b743a69863cf69c1a86, type: 2}
  - m_RefCount: 1
    m_Data: {fileID: 11400000, guid: 77752d241ff91d640b30863834cfbc04, type: 2}
  - m_RefCount: 1
    m_Data: {fileID: 11400000, guid: faa064bafb98cb24184408fb905e51a3, type: 2}
  - m_RefCount: 1
    m_Data: {fileID: 11400000, guid: ccc44629e9bfa9a44acccfa8a09682eb, type: 2}
  - m_RefCount: 1
    m_Data: {fileID: 11400000, guid: 1698f6e9f432d6a41b18c8e14db1c80d, type: 2}
  - m_RefCount: 1
    m_Data: {fileID: 11400000, guid: e39a08e930dd9154ebb9c14e582ea479, type: 2}
  - m_RefCount: 1
    m_Data: {fileID: 11400000, guid: 44587a523d62a3549af4c2e93c943374, type: 2}
  - m_RefCount: 1
    m_Data: {fileID: 11400000, guid: 3fc33ac955261b541b21849bded16378, type: 2}
  - m_RefCount: 1
    m_Data: {fileID: 11400000, guid: 0e420518c680fca4584891b343d098de, type: 2}
  - m_RefCount: 1
    m_Data: {fileID: 11400000, guid: 1a3fca5ddbc4402488db5a3af0c870fb, type: 2}
  - m_RefCount: 1
    m_Data: {fileID: 11400000, guid: 54215d471e1ace24da4a90b2d196518a, type: 2}
  m_TileSpriteArray:
  - m_RefCount: 1
    m_Data: {fileID: -260282397, guid: a335ba93ce1028d4eaef8ce1f0a58c51, type: 3}
  - m_RefCount: 1
    m_Data: {fileID: -137843999, guid: a335ba93ce1028d4eaef8ce1f0a58c51, type: 3}
  - m_RefCount: 1
    m_Data: {fileID: -909296553, guid: a335ba93ce1028d4eaef8ce1f0a58c51, type: 3}
  - m_RefCount: 1
    m_Data: {fileID: 230280779, guid: a335ba93ce1028d4eaef8ce1f0a58c51, type: 3}
  - m_RefCount: 1
    m_Data: {fileID: -2085126210, guid: a335ba93ce1028d4eaef8ce1f0a58c51, type: 3}
  - m_RefCount: 1
    m_Data: {fileID: 1549584798, guid: a335ba93ce1028d4eaef8ce1f0a58c51, type: 3}
  - m_RefCount: 1
    m_Data: {fileID: 2111309087, guid: a335ba93ce1028d4eaef8ce1f0a58c51, type: 3}
  - m_RefCount: 1
    m_Data: {fileID: -2105677663, guid: a335ba93ce1028d4eaef8ce1f0a58c51, type: 3}
  - m_RefCount: 1
    m_Data: {fileID: 1081830025, guid: a335ba93ce1028d4eaef8ce1f0a58c51, type: 3}
  - m_RefCount: 1
    m_Data: {fileID: -1954703433, guid: a335ba93ce1028d4eaef8ce1f0a58c51, type: 3}
  - m_RefCount: 1
    m_Data: {fileID: 1904364065, guid: a335ba93ce1028d4eaef8ce1f0a58c51, type: 3}
  - m_RefCount: 1
    m_Data: {fileID: -2115888837, guid: a335ba93ce1028d4eaef8ce1f0a58c51, type: 3}
  - m_RefCount: 1
    m_Data: {fileID: 1422413011, guid: a335ba93ce1028d4eaef8ce1f0a58c51, type: 3}
  - m_RefCount: 1
    m_Data: {fileID: 381368102, guid: a335ba93ce1028d4eaef8ce1f0a58c51, type: 3}
  - m_RefCount: 1
    m_Data: {fileID: -235912284, guid: a335ba93ce1028d4eaef8ce1f0a58c51, type: 3}
  - m_RefCount: 1
    m_Data: {fileID: 662364265, guid: a335ba93ce1028d4eaef8ce1f0a58c51, type: 3}
  - m_RefCount: 1
    m_Data: {fileID: 345773381, guid: a335ba93ce1028d4eaef8ce1f0a58c51, type: 3}
  - m_RefCount: 1
    m_Data: {fileID: -423940614, guid: a335ba93ce1028d4eaef8ce1f0a58c51, type: 3}
  - m_RefCount: 1
    m_Data: {fileID: -1987902910, guid: a335ba93ce1028d4eaef8ce1f0a58c51, type: 3}
  - m_RefCount: 1
    m_Data: {fileID: 1442184548, guid: a335ba93ce1028d4eaef8ce1f0a58c51, type: 3}
  - m_RefCount: 1
    m_Data: {fileID: 1031872969, guid: a335ba93ce1028d4eaef8ce1f0a58c51, type: 3}
  - m_RefCount: 1
    m_Data: {fileID: -618531237, guid: a335ba93ce1028d4eaef8ce1f0a58c51, type: 3}
  - m_RefCount: 1
    m_Data: {fileID: 302319143, guid: a335ba93ce1028d4eaef8ce1f0a58c51, type: 3}
  - m_RefCount: 1
    m_Data: {fileID: -1512175657, guid: a335ba93ce1028d4eaef8ce1f0a58c51, type: 3}
  - m_RefCount: 1
    m_Data: {fileID: 1106354120, guid: a335ba93ce1028d4eaef8ce1f0a58c51, type: 3}
  - m_RefCount: 1
    m_Data: {fileID: 152224592, guid: 4c9983ba4a251b640aa4f2c0363b0711, type: 3}
  - m_RefCount: 1
    m_Data: {fileID: -1652611753, guid: 4c9983ba4a251b640aa4f2c0363b0711, type: 3}
  - m_RefCount: 1
    m_Data: {fileID: -1943514148, guid: 4c9983ba4a251b640aa4f2c0363b0711, type: 3}
  - m_RefCount: 1
    m_Data: {fileID: 1137338878, guid: 4c9983ba4a251b640aa4f2c0363b0711, type: 3}
  - m_RefCount: 1
    m_Data: {fileID: -1620926081, guid: 4c9983ba4a251b640aa4f2c0363b0711, type: 3}
  - m_RefCount: 1
    m_Data: {fileID: 215486471, guid: 4c9983ba4a251b640aa4f2c0363b0711, type: 3}
  - m_RefCount: 1
    m_Data: {fileID: 1571106675, guid: 4c9983ba4a251b640aa4f2c0363b0711, type: 3}
  - m_RefCount: 1
    m_Data: {fileID: -1981965304, guid: 4c9983ba4a251b640aa4f2c0363b0711, type: 3}
  - m_RefCount: 1
    m_Data: {fileID: 1332962757, guid: 4c9983ba4a251b640aa4f2c0363b0711, type: 3}
  - m_RefCount: 1
    m_Data: {fileID: -1539994654, guid: 4c9983ba4a251b640aa4f2c0363b0711, type: 3}
  - m_RefCount: 1
    m_Data: {fileID: 1159922874, guid: 4c9983ba4a251b640aa4f2c0363b0711, type: 3}
  m_TileMatrixArray:
  - m_RefCount: 36
    m_Data:
      e00: 1
      e01: 0
      e02: 0
      e03: 0
      e10: 0
      e11: 1
      e12: 0
      e13: 0
      e20: 0
      e21: 0
      e22: 1
      e23: 0
      e30: 0
      e31: 0
      e32: 0
      e33: 1
  m_TileColorArray:
  - m_RefCount: 36
    m_Data: {r: 1, g: 1, b: 1, a: 1}
  m_TileObjectToInstantiateArray: []
  m_AnimationFrameRate: 1
  m_Color: {r: 1, g: 1, b: 1, a: 1}
  m_Origin: {x: -3, y: -7, z: 0}
  m_Size: {x: 6, y: 11, z: 1}
  m_TileAnchor: {x: 0.5, y: 0.5, z: 0}
  m_TileOrientation: 0
  m_TileOrientationMatrix:
    e00: 1
    e01: 0
    e02: 0
    e03: 0
    e10: 0
    e11: 1
    e12: 0
    e13: 0
    e20: 0
    e21: 0
    e22: 1
    e23: 0
    e30: 0
    e31: 0
    e32: 0
    e33: 1
--- !u!483693784 &1041016317922968752
TilemapRenderer:
  m_ObjectHideFlags: 0
  m_CorrespondingSourceObject: {fileID: 0}
  m_PrefabInstance: {fileID: 0}
  m_PrefabAsset: {fileID: 0}
  m_GameObject: {fileID: 8483232938391793035}
  m_Enabled: 1
  m_CastShadows: 0
  m_ReceiveShadows: 0
  m_DynamicOccludee: 0
  m_StaticShadowCaster: 0
  m_MotionVectors: 1
  m_LightProbeUsage: 0
  m_ReflectionProbeUsage: 0
  m_RayTracingMode: 0
  m_RayTraceProcedural: 0
  m_RenderingLayerMask: 1
  m_RendererPriority: 0
  m_Materials:
  - {fileID: 2100000, guid: a97c105638bdf8b4a8650670310a4cd3, type: 2}
  m_StaticBatchInfo:
    firstSubMesh: 0
    subMeshCount: 0
  m_StaticBatchRoot: {fileID: 0}
  m_ProbeAnchor: {fileID: 0}
  m_LightProbeVolumeOverride: {fileID: 0}
  m_ScaleInLightmap: 1
  m_ReceiveGI: 1
  m_PreserveUVs: 0
  m_IgnoreNormalsForChartDetection: 0
  m_ImportantGI: 0
  m_StitchLightmapSeams: 1
  m_SelectedEditorRenderState: 0
  m_MinimumChartSize: 4
  m_AutoUVMaxDistance: 0.5
  m_AutoUVMaxAngle: 89
  m_LightmapParameters: {fileID: 0}
  m_SortingLayerID: 0
  m_SortingLayer: 0
  m_SortingOrder: 0
  m_ChunkSize: {x: 32, y: 32, z: 32}
  m_ChunkCullingBounds: {x: 0, y: 0, z: 0}
  m_MaxChunkCount: 16
  m_MaxFrameAge: 16
  m_SortOrder: 0
  m_Mode: 0
  m_DetectChunkCullingBounds: 0
  m_MaskInteraction: 0
--- !u!114 &6336326846364524471
MonoBehaviour:
  m_ObjectHideFlags: 0
  m_CorrespondingSourceObject: {fileID: 0}
  m_PrefabInstance: {fileID: 0}
  m_PrefabAsset: {fileID: 0}
  m_GameObject: {fileID: 0}
  m_Enabled: 1
  m_EditorHideFlags: 0
  m_Script: {fileID: 12395, guid: 0000000000000000e000000000000000, type: 0}
  m_Name: Palette Settings
  m_EditorClassIdentifier: 
  cellSizing: 0
  m_TransparencySortMode: 0
  m_TransparencySortAxis: {x: 0, y: 0, z: 1}
